2017.07.06 12:10:24.340261 Login error. Unknown user
2017.07.06 12:37:03.838103 Login error. Unknown user
2017.07.06 12:39:28.396150 Success login. User ID: 1
2017.07.06 12:40:40.364131 Success login. User ID: 1
2017.07.06 12:55:14.324461 Success login. User ID: 1
2017.07.06 13:02:34.903112 Success login. User ID: 1
2017.07.06 13:44:00.910094 Success login. User ID: 1
2017.07.06 13:44:02.688128 Success login. User ID: 1
2017.07.06 13:48:31.859831 Success login. User ID: 1
2017.07.06 17:07:03.005402 Success login. User ID: 1
2017.07.06 17:07:08.337343 Success login. User ID: 1
2017.07.06 17:25:27.489622 Success login. User ID: 1
2017.07.06 17:25:30.911034 Success login. User ID: 1
